…
lyrics_sent <- lyrics_df %>% 
    unnest_tokens(word, lyrics) %>%
    left_join(nrc, by = 'word') %>%
    group_by(track_name) %>% 
    summarise(word_count = n(),
              pct_sad = sum(sad, na.rm = T) / word_count) %>% 
    ungroup

arrange(lyrics_sent, -pct_sad)

# A tibble: 208 x 3
                                 track_name word_count    pct_sad
                                      <chr>      <int>      <dbl>
1                         Give Up The Ghost        190 0.17368421
2                           True Love Waits         62 0.16129032
3  Packt Like Sardines in a Crushed Tin Box        172 0.12790698
4                              High and Dry        200 0.10000000
5                                       Fog         73 0.09589041
6                    How I Made My Millions         42 0.09523810
7                   Exit Music (For a Film)        106 0.09433962
8                                 The Thief        200 0.09000000
9                                Backdrifts        146 0.08904110
10                                 Let Down        161 0.07453416
# ... with 198 more rows
```
…
